{
  "carousel-holder-shadow": "#000",
  "carousel-holder-height": "312px",
  "carousel-holder-width": "312px",
  "carousel_items-carousel-list-width": "10000px",
  "carousel_items-carousel-list-min_height": "280px",
  "carousel_item-carousel-image-height": "200px",
  "carousel_item-carousel_short-describe-font_size": "11px",
  "carousel_item-carousel_short-describe-line_height": "12px",
  "carousel_item-carousel_short-describe-height": "26px",
  "carousel_item-carousel-btn-holder-bg": "#fff",
  "carousel_item-carousel-btn-holder_btn-bg1": "#fff",
  "carousel_item-carousel-btn-holder_btn-bg2": "#e9e9e9",
  "carousel_item-carousel-btn-holder_btn-bg3": "#fe7f1e",
  "carousel_item-carousel-btn-holder_btn-bg4": "#fc4603",
  "carousel_item-carousel-btn-holder_btn-shadow-hover": "#000",
  "carousel_item-carousel-btn-holder_btn-color-hover": "#fff"
}